{
  "users": [
    {
      "id": 1,
      "forename": "Marilyn",
      "surname": "Monroe",
      "image": "https://avatars.io/twitter/marilynmonroe",
      "gender": "Female",
      "location": "New York, New York"
    },
    {
      "id": 2,
      "forename": "Elvis",
      "surname": "Presley",
      "image": "https://avatars.io/facebook/elvis",
      "gender": "Male",
      "location": "Califorornia, San Francisco",
      "followed": "true"
    },
    {
      "id": 3,
      "forename": "Marilyn",
      "surname": "Manson",
      "image": "https://avatars.io/facebook/marilynmanson",
      "location": "Pennsylvania, Philadelphia",
      "gender": "Male"
    },
    {
      "id": 4,
      "forename": "Marilyn",
      "surname": "Monroe",
      "image": "https://avatars.io/twitter/marilynmonroe",
      "gender": "Female",
      "location": "New York, New York",
      "followed": "true"
    },
    {
      "id": 5,
      "forename": "Elvis",
      "surname": "Presley",
      "image": "https://avatars.io/facebook/elvis",
      "gender": "Male",
      "location": "Califorornia, San Francisco"
    },
    {
      "id": 6,
      "forename": "Marilyn",
      "surname": "Manson",
      "image": "https://avatars.io/facebook/marilynmanson",
      "location": "Pennsylvania, Philadelphia",
      "gender": "Male",
      "followed": "true"
    },
    {
      "id": 7,
      "forename": "Marilyn",
      "surname": "Monroe",
      "image": "https://avatars.io/twitter/marilynmonroe",
      "gender": "Female",
      "location": "New York, New York",
      "followed": "true"
    },
    {
      "id": 2,
      "forename": "Elvis",
      "surname": "Presley",
      "image": "https://avatars.io/facebook/elvis",
      "gender": "Male",
      "location": "Califorornia, San Francisco"
    },
    {
      "id": 8,
      "forename": "Marilyn",
      "surname": "Manson",
      "image": "https://avatars.io/facebook/marilynmanson",
      "location": "Pennsylvania, Philadelphia",
      "gender": "Male",
      "followed": "true"
    },
    {
      "id": 9,
      "forename": "Marilyn",
      "surname": "Monroe",
      "image": "https://avatars.io/twitter/marilynmonroe",
      "gender": "Female",
      "location": "New York, New York"
    },
    {
      "id": 10,
      "forename": "Elvis",
      "surname": "Presley",
      "image": "https://avatars.io/facebook/elvis",
      "gender": "Male",
      "location": "Califorornia, San Francisco",
      "followed": "true"
    },
    {
      "id": 11,
      "forename": "Marilyn",
      "surname": "Manson",
      "image": "https://avatars.io/facebook/marilynmanson",
      "location": "Pennsylvania, Philadelphia",
      "gender": "Male"
    }
  ]
}